Curso: Geoanálisis - 6 Geocoding
…
Transformar las corrdenadas en un objeto sf utilizando la función st_as_sf()

resultados_sf <- st_as_sf(resultados, 
                          coords =  c("x" = "longitude", "y" = "latitude"),
                          crs = st_crs(4326))

resultados_sf

Simple feature collection with 41 features and 4 fields
Geometry type: POINT
Dimension:     XY
Bounding box:  xmin: -73.24424 ymin: -37.46137 xmax: -70.53918 ymax: -32.78707
Geodetic CRS:  WGS 84
# A tibble: 41 × 5
   ID        SEDE                    ETAPA CONSULTA                 geometry
 * <chr>     <chr>                   <dbl> <chr>                 <POINT [°]>
 1 MT_069161 PLAZA VESPUCIO              1 5898 BOLIV… (-70.57028 -33.48036)
 2 MT_079411 VIÑA DEL MAR                1 1722 SANTA… (-71.37489 -33.06368)
 3 DS_008657 PUENTE ALTO                 1 3507 MARCE…  (-70.5577 -33.52744)
 4 MT_072766 SAN BERNARDO                1 14483 VOLC… (-70.67159 -33.59368)
 5 MT_076946 SAN JOAQUIN                 1 10279 EMIL… (-70.59105 -33.55342)
 6 MT_047169 VALPARAISO                  1 786 CALI, … (-71.20373 -32.78707)
 7 MT_020127 SAN CARLOS DE APOQUINDO     1 5150 IRARR… (-70.57652 -33.45392)
 8 DS_011645 SAN CARLOS DE APOQUINDO     1 5175 DIAGO…  (-70.5991 -33.44436)
 9 DS_002632 MAIPU                       1 5775 PASAJ… (-70.71298 -33.47642)
10 MT_024599 SAN JOAQUIN                 1 10972 AV J…  (-70.6225 -33.56392)
# ℹ 31 more rows
…
